

  {
    "id": "mythras-not-so-imperative-v10",
    "title": "Mythras Not-So-Imperative v10",
    "description": "A collection of Macros and compendiums that make running a Mythras campaign a bit easier. This is a fork of the original Not-So-Imperative module by DogBoneZone, updated to be compatible with more recent Foundry versions from v10 onwards.",

    "authors": [
      {
        "name": "Grendelstein"
   
    },
      {
          "name": "DogBoneZone"
     
      }
    ],
    "url": "",
    "readme": "",
    "flags": {},
    "version": "1.1",
    "compatibility": {
      "minimum": "11",
      "verified": "11"
    },
    "scripts": [],
    "esmodules": ["main.js"],
    "styles": ["chat-styles.css"],
    "languages": [],
    "packs": [
      {
        "name": "special-effects",
        "label": "Special Effects",
        "path": "/packs/special-effects.db",
        "private": false,
        "type": "JournalEntry",
        "system": "mythras"
      },
      {
        "name": "strobus-codex",
        "label": "Strobus Codex",
        "path": "/packs/strobus-codex.db",
        "private": false,
        "type": "JournalEntry",
        "system": "mythras"
      },
      {
        "name": "dogbonezones-macros",
        "label": "DogBoneZone's Macros",
        "path": "/packs/dogbonezones-macros.db",
        "private": false,
        "system": "mythras",
        "type": "Macro"
      },
      {
        "name": "arachnidHitLocations",
        "label": "Arachnid Hit Locations",
        "path": "/packs/arachnidHitLocations.db",
        "private": false,
        "system": "mythras",
        "type": "Item"
      },
      {
        "name": "centauridHitLocations",
        "label": "Centaurid Hit Locations",
        "path": "/packs/centauridHitLocations.db",
        "private": false,
        "system": "mythras",
        "type": "Item"
      },
      {
        "name": "draconicHitLocations",
        "label": "Draconic Hit Locations",
        "path": "/packs/draconicHitLocations.db",
        "private": false,
        "system": "mythras",
        "type": "Item"
      },
      {
        "name": "insectHitLocations",
        "label": "Insect Hit Locations",
        "path": "/packs/insectHitLocations.db",
        "private": false,
        "system": "mythras",
        "type": "Item"
      },
      {
        "name": "dorsalFinAquaticHitLocations",
        "label": "Dorsal Fin Aquatic Hit Locations",
        "path": "/packs/dorsalFinAquaticHitLocations.db",
        "private": false,
        "system": "mythras",
        "type": "Item"
      },
      {
        "name": "pachydermHitLocations",
        "label": "Pachyderm Hit Locations",
        "path": "/packs/pachydermHitLocations.db",
        "private": false,
        "system": "mythras",
        "type": "Item"
      },
      {
        "name": "serpentineHitLocations",
        "label": "Serpentine Hit Locations",
        "path": "/packs/serpentineHitLocations.db",
        "private": false,
        "system": "mythras",
        "type": "Item"
      },
      {
        "name": "tailedArachnidHitLocations",
        "label": "Tailed Arachnid Hit Locations",
        "path": "/packs/tailedArachnidHitLocations.db",
        "private": false,
        "system": "mythras",
        "type": "Item"
      },
      {
        "name": "tailedBipedHitLocations",
        "label": "Tailed Biped Hit Locations",
        "path": "/packs/tailedBipedHitLocations.db",
        "private": false,
        "system": "mythras",
        "type": "Item"
      },
      {
        "name": "tailedQuadrupedHitLocations",
        "label": "Tailed Quadruped Hit Locations",
        "path": "/packs/tailedQuadrupedHitLocations.db",
        "private": false,
        "system": "mythras",
        "type": "Item"
      },
      {
        "name": "wingedBipedHitLocations",
        "label": "Winged Biped Hit Locations",
        "path": "/packs/wingedBipedHitLocations.db",
        "private": false,
        "system": "mythras",
        "type": "Item"
      },
      {
        "name": "wingedInsectHitLocations",
        "label": "Winged Insect Hit Locations",
        "path": "/packs/wingedInsectHitLocations.db",
        "private": false,
        "system": "mythras",
        "type": "Item"
      },
      {
        "name": "wingedQuadrupedHitLocations",
        "label": "Winged Quadruped Hit Locations",
        "path": "/packs/wingedQuadrupedHitLocations.db",
        "private": false,
        "system": "mythras",
        "type": "Item"
      }
    ],
    "system": ["mythras"],
    "dependencies": [
      {
        "name": "compendium-folders",
        "manifest": "https://raw.githubusercontent.com/earlSt1/vtt-compendium-folders/master/module.json",
        "type": "module"
      },
      {
        "name": "lib-wrapper",
        "manifest": "https://github.com/ruipin/fvtt-lib-wrapper/releases/latest/download/module.json",
        "type": "module"
      }
    ],
    "socket": false,
    "manifest": "https://gitlab.com/grendelstein/mythras-not-so-imperative-v10/-/raw/main/module.json",
    "download": "https://gitlab.com/grendelstein/mythras-not-so-imperative-v10/-/archive/1.1/mythras-not-so-imperative-v10-1.1.zip",
    
    "protected": false,
    "coreTranslation": false
  }
  


